AROP + Gini
…
AROPE = (AROP | nízká pracovní intenzita | vážná materiální nebo sociální deprivace)

vážná materiální a sociální deprivace = alespoň 7 ze 13 položek týkající se deprivace (6 ohledně jednotlivce, 7 za domácnost)

AROP

velmi nízká pracovní intenzita (pro domácnosti tvořené dospělými ve věku 18-64) = dospělí pracovovali méně než 20% jejich pracovního potenciálu

hh_r_silc_2023_national_arop %>% 
  group_by(country) %>% 
  summarise(
    severely_deprived = wtd.mean(severe_material_social_deprivation, hh_cross_weight)
  )

# A tibble: 27 × 2
   country  severely_deprived
   <chr>                <dbl>
 1 Austria             0.0407
 2 Belgium             0.0703
 3 Bulgaria            0.192 
 4 Croatia             0.0422
 5 Cyprus              0.0299
 6 Czechia             0.0283
 7 Denmark             0.0600
 8 Estonia             0.0277
 9 Finland             0.0385
10 France              0.0713
# ℹ 17 more rows

hh_r_silc_2023_national_arop %>% 
  filter(low_work_intensity != 2) %>% 
  group_by(country) %>% 
  summarise(
    low_work_intensity = wtd.mean(low_work_intensity, hh_cross_weight)
  )

# A tibble: 27 × 2
   country  low_work_intensity
   <chr>                 <dbl>
 1 Austria              0.0752
 2 Belgium              0.139 
 3 Bulgaria             0.0757
 4 Croatia              0.0506
 5 Cyprus               0.0533
 6 Czechia              0.0553
 7 Denmark              0.150 
 8 Estonia              0.0786
 9 Finland              0.124 
10 France               0.104 
# ℹ 17 more rows
…
